VIVADO/GPNAE/GPNAE.sim/sim_1/behav/xsim/simulate.log
Time resolution is 1 ps

Starting SELU test with Terms = 14
Time=5000: State changed to IDLE
Time=5000: Reset phase completed
Time=25000: State changed to SELU
Signal 0: Took 4 cycles to write
Signal 1: Took 4 cycles to write
Signal 2: Took 4 cycles to write
Signal 3: Took 4 cycles to write
Signal 4: Took 4 cycles to write
Signal 5: Took 4 cycles to write
Signal 6: Took 4 cycles to write
Signal 7: Took 4 cycles to write
Signal 8: Took 4 cycles to write
Signal 9: Took 4 cycles to write
Signal 10: Took 4 cycles to write
Signal 11: Took 4 cycles to write
Signal 12: Took 4 cycles to write
Signal 13: Took 4 cycles to write
Signal 14: Took 4 cycles to write
Signal 15: Took 4 cycles to write
Signal 16: Took 4 cycles to write
Signal 17: Took 4 cycles to write
Signal 18: Took 4 cycles to write
Signal 19: Took 4 cycles to write
Signal 20: Took 4 cycles to write
Signal 21: Took 4 cycles to write
Signal 22: Took 4 cycles to write
Signal 23: Took 4 cycles to write
Signal 24: Took 4 cycles to write
Signal 25: Took 4 cycles to write
Signal 26: Took 4 cycles to write
Signal 27: Took 4 cycles to write
Signal 28: Took 4 cycles to write
Time=1215000: All signals loaded
Signal 29: Took 4 cycles to write
Buffer writing completed in 120 cycles
Time=5175000: Processing complete, Final result = bfd0f0a2
Time=5175000: Processed=1, Done_o=1, Took 395 cycles since last done
Time=8805000: Processing complete, Final result = bfd2d1bb
Time=8805000: Processed=2, Done_o=1, Took 363 cycles since last done
Time=12435000: Processing complete, Final result = bfd2e0be
Time=12435000: Processed=3, Done_o=1, Took 363 cycles since last done
Time=16065000: Processing complete, Final result = bfd1fe71
Time=16065000: Processed=4, Done_o=1, Took 363 cycles since last done
Time=19695000: Processing complete, Final result = bfd069ce
Time=19695000: Processed=5, Done_o=1, Took 363 cycles since last done
Time=23325000: Processing complete, Final result = bfce13ef
Time=23325000: Processed=6, Done_o=1, Took 363 cycles since last done
Time=26955000: Processing complete, Final result = bfcac06b
Time=26955000: Processed=7, Done_o=1, Took 363 cycles since last done
Time=30585000: Processing complete, Final result = bfc60c82
Time=30585000: Processed=8, Done_o=1, Took 363 cycles since last done
Time=34215000: Processing complete, Final result = bfbf6877
Time=34215000: Processed=9, Done_o=1, Took 363 cycles since last done
Time=37845000: Processing complete, Final result = bfb60864
Time=37845000: Processed=10, Done_o=1, Took 363 cycles since last done
Time=41475000: Processing complete, Final result = bfa8cc16
Time=41475000: Processed=11, Done_o=1, Took 363 cycles since last done
Time=45105000: Processing complete, Final result = bf961cac
Time=45105000: Processed=12, Done_o=1, Took 363 cycles since last done
Time=48735000: Processing complete, Final result = bf77775d
Time=48735000: Processed=13, Done_o=1, Took 363 cycles since last done
Time=52365000: Processing complete, Final result = bf2cfc5c
Time=52365000: Processed=14, Done_o=1, Took 363 cycles since last done
Time=55995000: Processing complete, Final result = be87ad2d
Time=55995000: Processed=15, Done_o=1, Took 363 cycles since last done
Time=59565000: Processing complete, Final result = 3e3980c8
Time=59565000: Processed=16, Done_o=1, Took 357 cycles since last done
Time=59775000: Processing complete, Final result = 3e3980c8
Time=59775000: Processed=17, Done_o=1, Took 21 cycles since last done
Time=59985000: Processing complete, Final result = 3f0b2097
Time=59985000: Processed=18, Done_o=1, Took 21 cycles since last done
Time=60195000: Processing complete, Final result = 3f67e0fb
Time=60195000: Processed=19, Done_o=1, Took 21 cycles since last done
Time=60405000: Processing complete, Final result = 3fa250b1
Time=60405000: Processed=20, Done_o=1, Took 21 cycles since last done
Time=60615000: Processing complete, Final result = 3fd0b0e2
Time=60615000: Processed=21, Done_o=1, Took 21 cycles since last done
Time=60825000: Processing complete, Final result = 3fff1115
Time=60825000: Processed=22, Done_o=1, Took 21 cycles since last done
Time=61035000: Processing complete, Final result = 4016b8a4
Time=61035000: Processed=23, Done_o=1, Took 21 cycles since last done
Time=61245000: Processing complete, Final result = 402de8bc
Time=61245000: Processed=24, Done_o=1, Took 21 cycles since last done
Time=61455000: Processing complete, Final result = 404518d5
Time=61455000: Processed=25, Done_o=1, Took 21 cycles since last done
Time=61665000: Processing complete, Final result = 405c48ef
Time=61665000: Processed=26, Done_o=1, Took 21 cycles since last done
Time=61875000: Processing complete, Final result = 40737908
Time=61875000: Processed=27, Done_o=1, Took 21 cycles since last done
Time=62085000: Processing complete, Final result = 40855491
Time=62085000: Processed=28, Done_o=1, Took 21 cycles since last done
Time=62295000: Processing complete, Final result = 4090ec9e
Time=62295000: Processed=29, Done_o=1, Took 21 cycles since last done
Time=62505000: Processing complete, Final result = 409c84ab
Time=62505000: Processed=30, Done_o=1, Took 21 cycles since last done
SELU test completed
Buffer write time: 120 cycles
Processing time (without buffer write): 6128 cycles
Total operation time (with buffer write): 6248 cycles
Average cycles per input: 4 cycles

Test Summary:
Total signals processed: 30
Total clock cycles: 6249
Time=62505000: Test completed
Time=62515000: Reset phase completed
$finish called at time : 62605 ns : File "/home/admin/Desktop/GPNAE/testbenches/TB_gpnae.sv" Line 297
